richard annie 10 05-01-2019 18:08;
crystalsmith norvaldach 5 10-01-2019 16:45;
iknowwhatyoudidlastsummer 16 30-06-2018 15:26;
hackerman imwatchingyou 8 03-12-2018 08:54;
oneofthemanybitcoinminersforfreeinternet hackerman 20 08-02-2019 04:52;
johnsmith shirleysparkerlittlewallet 30 24-02-2019 10:10;
